{
    "uuid": "01aac90e-25ae-40be-bace-6b0f9b7f02bc",
    "name": "Meta Materialzuschlagskopf",
    "description": "12:5 | M 57",
    "extraSearchTerms": [],
    "tags": [
        "mm"
    ],
    "code": "..<META ${HMD0123456789}|= 'P12:5'>  Materialzuschlagskopf | Maske 57\n${cursor}",
    "location": "GENERIC_FILE",
    "filenameRestrictions": [],
    "dependencies": []
}