{
  "uuid": "0ddc35fd-858f-4686-ad0b-7c9609d77a32",
  "name": "% Auswahl Objektauswahl Abfrage User Benutzer Interaktion",
  "description": "",
  "extraSearchTerms": [],
  "tags": [],
  "code": "    .formula U|xtcriteria \u003d \"%,,\"\r\n    .formula U|xtcriteria \u003d U|xtcriteria + \";.${criterium}\u003d${wert}\"\r\n    .formula U|xtcriteria \u003d U|xtcriteria + \";@titel\u003d${Titel}\"\r\n    .formula U|xtcriteria \u003d U|xtcriteria + \";@database\u003d${database}\"\r\n    .formula U|xtcriteria \u003d U|xtcriteria + \";@group\u003d${gruppe}\"\r\n    .formula U|xtcriteria \u003d U|xtcriteria + \";@autostart\u003d(Yes)\"\r\n    .formula U|xtcriteria \u003d U|xtcriteria + \";@dschutz\u003d(Yes)\"\r\n    .formula U|xtcriteria \u003d U|xtcriteria + \";@gschutz\u003d(Yes)\"\r\n    .formula U|xtcriteria \u003d U|xtcriteria + \";.@zeilen\u003d(No)\"\r\n    .formula U|xtcriteria \u003d U|xtcriteria + \";@.bereich\u003d(No)\"\r\n    .formula U|xtcriteria \u003d U|xtcriteria + \";.@verknuepfung\u003d(And)\"\r\n    .formula U|xtcriteria \u003d U|xtcriteria + \";.@ablageart\u003d(Active)\"\r\n    \r\n    .load ${ladepuffer} nolock object \u0027U|xtcriteria\u0027\r\n    if (G|mehr \u003d G|true) {\r\n\r\n        .formula ${Puffer}|${variable} \u003d ${ladepuffer}|id\r\n\r\n    } else {\r\n        .end 1\r\n    }",
  "location": "GENERIC_FILE",
  "filenameRestrictions": [],
  "dependencies": []
}