{
    "uuid": "11407265-04e3-48ea-accc-ad370a259912",
    "name": "Meta statistische Buchung",
    "description": "6:1 | M 169",
    "extraSearchTerms": [],
    "tags": [
        "mm"
    ],
    "code": "..<META ${HMD0123456789}|= 'P6:1'>  statistische Buchung | Maske 169\n${cursor}",
    "location": "GENERIC_FILE",
    "filenameRestrictions": [],
    "dependencies": []
}