{
    "uuid": "11e2a9a6-6dad-45a3-8074-05f531fa4524",
    "name": "Meta AfA-Modell-Generierung",
    "description": "27:20 | M 486",
    "extraSearchTerms": [],
    "tags": [
        "mm"
    ],
    "code": "..<META ${HMD0123456789}|= 'P27:20'>  AfA-Modell-Generierung | Maske 486\n${cursor}",
    "location": "GENERIC_FILE",
    "filenameRestrictions": [],
    "dependencies": []
}