{
    "uuid": "14062029-f8ee-4ac8-9ad5-e6e1fbb9d4a4",
    "name": "Meta Verkaufsrechnung",
    "description": "3:24 | M 36",
    "extraSearchTerms": [],
    "tags": [
        "mm"
    ],
    "code": "..<META ${HMD0123456789}|= 'P3:24'>  Verkaufsrechnung | Maske 36\n${cursor}",
    "location": "GENERIC_FILE",
    "filenameRestrictions": [],
    "dependencies": []
}