{
    "uuid": "1a1c8f13-19a5-4bf9-917c-4f5de8ad1474",
    "name": "Meta Druckverteiler",
    "description": "91:2 | M 730",
    "extraSearchTerms": [],
    "tags": [
        "mm"
    ],
    "code": "..<META ${HMD0123456789}|= 'P91:2'>  Druckverteiler | Maske 730\n${cursor}",
    "location": "GENERIC_FILE",
    "filenameRestrictions": [],
    "dependencies": []
}