{
    "uuid": "1c2f851f-f128-4898-969c-aafd3cc27f2d",
    "name": "Meta Produktgruppe",
    "description": "12:29 | M 23",
    "extraSearchTerms": [],
    "tags": [
        "mm"
    ],
    "code": "..<META ${HMD0123456789}|= 'P12:29'>  Produktgruppe | Maske 23\n${cursor}",
    "location": "GENERIC_FILE",
    "filenameRestrictions": [],
    "dependencies": []
}