{
    "uuid": "1e225703-d5ba-428b-9dc5-d589110b3289",
    "name": "Meta Selektionsrohling",
    "description": "12:24 | M 55",
    "extraSearchTerms": [],
    "tags": [
        "mm"
    ],
    "code": "..<META ${HMD0123456789}|= 'P12:24'>  Selektionsrohling | Maske 55\n${cursor}",
    "location": "GENERIC_FILE",
    "filenameRestrictions": [],
    "dependencies": []
}