{
    "uuid": "249dc2a3-a9de-411d-9848-03f3f4ffd06b",
    "name": "Meta R\u00fcckl\u00e4uferdokument",
    "description": "70:3 | M 894",
    "extraSearchTerms": [],
    "tags": [
        "mm"
    ],
    "code": "..<META ${HMD0123456789}|= 'P70:3'>  R\u00fcckl\u00e4uferdokument | Maske 894\n${cursor}",
    "location": "GENERIC_FILE",
    "filenameRestrictions": [],
    "dependencies": []
}