{
    "uuid": "33e0f485-e957-494a-b828-369e69f06723",
    "name": "Meta Colli-Info",
    "description": "14:3 | M 61",
    "extraSearchTerms": [],
    "tags": [
        "mm"
    ],
    "code": "..<META ${HMD0123456789}|= 'P14:3'>  Colli-Info | Maske 61\n${cursor}",
    "location": "GENERIC_FILE",
    "filenameRestrictions": [],
    "dependencies": []
}