{
  "uuid": "343bf538-2147-40b5-b8b7-df76c9503267",
  "name": "Duplikat doppelt",
  "description": "",
  "extraSearchTerms": [],
  "tags": [],
  "code": "def isDuplicate() {\r\n\r\n    .type text xtduplicatestring ? F|defined(U|xtduplicatestring) \u003d G|false\r\n    .type text xtpatternstring   ? F|defined(U|xtpatternstring) \u003d G|false\r\n    .type bool xbisduplicate     ? F|defined(U|xbisduplicate) \u003d G|false\r\n\r\n    .formula U|xtpatternstring \u003d F|formatstr(\"#{1}#\", F|trim(${pruefstring}))\r\n    if (F|regindex(U|xtduplicatestring, U|xtpatternstring, G|true) \u003d 0) {\r\n        .formula U|xtduplicatestring \u003d U|xtduplicatestring + U|xtpatternstring\r\n        .formula U|xbisduplicate \u003d G|false\r\n    } else {\r\n        .formula U|xbisduplicate \u003d G|true\r\n    }\r\n}\r\n\r\ndef isDuplicateShell() {\r\n\r\n    .type text xtduplicatefile ? F|defined(U|xtduplicatefile) \u003d G|false\r\n    .type text xtsyscommand ? F|defined(U|xtsyscommand) \u003d G|false\r\n    .type bool xbisduplicate     ? F|defined(U|xbisduplicate) \u003d G|false\r\n    \r\n    .file -tempname U|xtduplicatefile -suffix \"DUPLICATEFILE\" \r\n     .. isDuplicate (){ grep -F -w \"$$1\" test.txt \u0026\u0026 return || echo \"$$1\" \u003e\u003e test.txt ; false ; } ; isDuplicate \"1XX3\"\r\n    .formula U|xtsyscommand \u003d \"isDuplicate (){ grep -F -w \" + G|dblquote + \"$${1}\" + G|dblquote + \" \" + \u0027U|xtduplicatefile\u0027 + \" \u0026\u0026 return 0 || echo \" + G|dblquote + \"$${1}\" + G|dblquote + \" \u003e\u003e \" + \u0027U|xtduplicatefile\u0027 + \"\u0026\u0026 return 2 ; } ; isDuplicate \" + G|dblquote + F|trim(U|xtvar) + G|dblquote \r\n    .system \u0027U|xtsyscommand\u0027 background\r\n    \r\n    if (G|mehr \u003d G|true) {\r\n    .formula U|xbisduplicate \u003d G|true\r\n    } else {\r\n    .formula U|xbisduplicate \u003d G|false\r\n    }\r\n    \r\n}",
  "location": "GENERIC_FILE",
  "filenameRestrictions": [],
  "dependencies": []
}