{
    "uuid": "3800f9c8-0456-4d7d-8de0-8cfc912f8982",
    "name": "FIELD_FILL",
    "description": "Feldf\u00fcll Event",
    "extraSearchTerms": [
        "feldfuell",
        "fill"
    ],
    "tags": [
        "if",
        "evt"
    ],
    "code": "   if (G|evtartengl = \"FIELD_FILL\") {\n\n        switch ('G|evtvar') {\n            case (\"${feldname}\") {\n                ${cursor}\n            }\n        default {}\n        }\n    }",
    "location": "GENERIC_FILE",
    "filenameRestrictions": [],
    "dependencies": []
}