{
    "uuid": "3a319507-9482-4833-b1fc-90eeafd153e2",
    "name": "Meta Abschreibungsmodell",
    "description": "27:10 | M 805",
    "extraSearchTerms": [],
    "tags": [
        "mm"
    ],
    "code": "..<META ${HMD0123456789}|= 'P27:10'>  Abschreibungsmodell | Maske 805\n${cursor}",
    "location": "GENERIC_FILE",
    "filenameRestrictions": [],
    "dependencies": []
}