{
  "uuid": "403378c6-4584-4608-9ebe-f398b5da5243",
  "name": "letzte n Buchstaben ausgeben | ABCDE \u003e\u003e 2 \u003d \"DE\"",
  "description": "",
  "extraSearchTerms": [],
  "tags": [],
  "code": "\u003e\u003e",
  "location": "GENERIC_FILE",
  "filenameRestrictions": [],
  "dependencies": []
}