{
    "uuid": "41da3f56-9279-4566-a522-40c2f0df13eb",
    "name": "Meta Lieferantenkontakt",
    "description": "1:2 | M 26",
    "extraSearchTerms": [],
    "tags": [
        "mm"
    ],
    "code": "..<META ${HMD0123456789}|= 'P1:2'>  Lieferantenkontakt | Maske 26\n${cursor}",
    "location": "GENERIC_FILE",
    "filenameRestrictions": [],
    "dependencies": []
}