{
  "uuid": "436bd6a9-c9e4-4bc7-92f6-98a985828cc4",
  "name": "Modus_NEU_DEUTSCH",
  "description": "wenn Modus \"Neu\" dann",
  "extraSearchTerms": [
    "evtkommd",
    "kaktname"
  ],
  "tags": [],
  "code": "if(G|evtkommd \u003d \u0027G|kaktname.U|koaktNEU\u0027){\r\n    ${cursor}\r\n}",
  "location": "GENERIC_FILE",
  "filenameRestrictions": [],
  "dependencies": []
}