{
    "uuid": "45ede2e7-a4b0-40c1-8708-7c10d2e36a3a",
    "name": "Meta Rechenregel",
    "description": "60:2 | M 469",
    "extraSearchTerms": [],
    "tags": [
        "mm"
    ],
    "code": "..<META ${HMD0123456789}|= 'P60:2'>  Rechenregel | Maske 469\n${cursor}",
    "location": "GENERIC_FILE",
    "filenameRestrictions": [],
    "dependencies": []
}