{
  "uuid": "47e8c05b-cf20-418c-b07b-906a4db37c78",
  "name": "txt maskende see",
  "description": "fop.txt",
  "extraSearchTerms": [],
  "tags": [],
  "code": "${masknr}  * maskende   *  *  *  [C]  ow${verzeich}/${cursor}",
  "location": "GENERIC_FILE",
  "filenameRestrictions": [],
  "dependencies": []
}