{
    "uuid": "4b7956c6-eddd-47ae-b137-a0c7e0e0c5dd",
    "name": "Meta JFOP-Server",
    "description": "91:8 | M 977",
    "extraSearchTerms": [],
    "tags": [
        "mm"
    ],
    "code": "..<META ${HMD0123456789}|= 'P91:8'>  JFOP-Server | Maske 977\n${cursor}",
    "location": "GENERIC_FILE",
    "filenameRestrictions": [],
    "dependencies": []
}