{
    "uuid": "4bb2f0d4-ce71-4419-baea-529a9970298c",
    "name": "Meta Verkaufslieferschein",
    "description": "3:23 | M 35",
    "extraSearchTerms": [],
    "tags": [
        "mm"
    ],
    "code": "..<META ${HMD0123456789}|= 'P3:23'>  Verkaufslieferschein | Maske 35\n${cursor}",
    "location": "GENERIC_FILE",
    "filenameRestrictions": [],
    "dependencies": []
}