{
  "uuid": "4d5ff468-4f68-4410-89de-8b89fe614e22",
  "name": "screen tempfile Übergabe zwischen events",
  "description": "",
  "extraSearchTerms": [],
  "tags": [],
  "code": "def main() {\r\n\r\n    .type text xttempfile ? F|defined(U|xttempfile) \u003d G|false\r\n    .file -screen -tempname U|xttempfile -suffix \"SCREEN\"\r\n\r\n    .output addedto \u0027U|xttempfile\u0027\r\n    .input DATEI.F\r\n                   \r\n    .println -text ..!interpreter english declaration noabbrev\r\n    .println -text .type text xsuch \r\n    .println -text .formula U|xsuch \u003d \"X\" + \u0027G|zeit\u0027\r\n    .println -text .make file1 group0\r\n    .println -text .formula H|such \u003d \u0027U|xsuch\u0027\r\n    .println -text .rewrite\r\n\r\n    .output terminal\r\n}\r\n\r\ndef main() {\r\n\r\n    .type text xttempfile ? F|defined(U|xttempfile) \u003d G|false\r\n    .file -screen -tempname U|xttempfile -suffix \"SCREEN\"\r\n    \r\n    if (F|filenotempty(\u0027U|xttempfile\u0027) \u003d G|true) {\r\n\r\n      .input \u0027U|xttempfile\u0027\r\n\r\n    }\r\n}\r\n\r\n\r\n    .type text xttempfile ? F|defined(U|xttempfile) \u003d G|false\r\n    .file -screen -tempname U|xttempfile -suffix \"SCREEN\"\r\n    .system \u0027F|expr(\"touch \" + U|xttempfile)\u0027 background\r\n\r\n\r\n    .file -screen -tempname U|xttempfile -suffix \"SCREEN\"\r\n    \r\n    if (F|fileexists(\u0027U|xttempfile\u0027) \u003d G|true) {\r\n\r\n\r\n    } \r\n\r\n\r\n..44  * maskpruef  *  *  *  [C]  owfo/S0044.SV.FO2\r\n..44  * maskende   *  *  *  [C]  owfo/S0044.SEE.FO2\r\n",
  "location": "GENERIC_FILE",
  "filenameRestrictions": [],
  "dependencies": []
}