{
    "uuid": "50fe9e5c-8cc5-4150-8120-83accdeb6ebf",
    "name": "G|kanalnummer",
    "description": "Prozessnummer des abas-Vaterprozesses",
    "extraSearchTerms": [],
    "tags": [
        "gg"
    ],
    "code": "G|kanalnummer",
    "location": "GENERIC_FILE",
    "filenameRestrictions": [],
    "dependencies": []
}