{
  "uuid": "6063a99b-520c-4ac2-8d90-9b64fcbd8f1f",
  "name": "Umbuchung Lagerbuchung",
  "description": "epd Tippkommando LBuchung",
  "extraSearchTerms": [],
  "tags": [],
  "code": "  .file -tempname U|xtedpfile    -suffix \"edpupdate\"\r\n    .file -tempname U|xtlogfile    -suffix \"logupdate\"\r\n    .file -tempname U|xterrorfile  -suffix \"errorupdate\"\r\n\r\n    .output new \u0027U|xtedpfile\u0027\r\n    .input DATEI.F\r\n    .println LGN|1||||||-|||    \r\n    .println SET|1|UPDATEMODE|STRICT|       \r\n    .println SET|1|LOCKBEHAVIOR|WAIT:1|\r\n    .println SET|1|CONTEXT|FOPAUFRUFSTACK: \u0027G|stack\u0027     \r\n\r\n    .select screen line \"$$,,yziellagerplatz\u003c\u003e`;yumbuchmge\u003e0;@verknuepfung\u003d(Or)\"\r\n    while (G|mehr \u003d G|true) {\r\n\r\n        .println EDI|1|DO|(Stockadjustment)|NUMSW|30010|\r\n        .println SFV|1|0|artikel|\u0027M|tartikel^id\u0027|\r\n        .println SFV|1|0|buart|(Transfer)|\r\n        .println SFV|1|0|beleg|ISBESTAND\u0027G|datum:8\u0027|\r\n        .println SFV|1|0|ljtext1|IS Bestand \u0027G|zeitpunkt\u0027 \u0027G|bzeichen\u0027|\r\n        .println SFV|1|0|beldat|.|\r\n\r\n        .println SFV|1|1|platz|\u0027M|lplatz^id\u0027|\r\n        .println SFV|1|1|platz2|\u0027M|yziellagerplatz^id\u0027|\r\n        .println SFV|1|1|mge|\u0027M|yumbuchmge\u0027|\r\n        .println SFV|1|1|charge1|\u0027M|charge^id\u0027| ? F|empty(M|charge) \u003d G|false\r\n        .println SFV|1|1|charge2|\u0027M|charge^id\u0027| ? F|empty(M|charge) \u003d G|false\r\n        .println COM|1\r\n\r\n        .select screen line \r\n    }\r\n\r\n    .println END|1|\r\n\r\n    .. Output beenden|\r\n    .output terminal \r\n\r\n    ..  ab abas Version 2017 kein grep notwendig, davor gibt es keinen -A Parameter\r\n    .formula U|xtsyscommand \u003d \"epi -c EKS -e -A -I \" + U|xtedpfile + \" \u003e \" + U|xtlogfile + \" 2\u003e \" + U|xterrorfile\r\n    .system \u0027U|xtsyscommand\u0027 password background\r\n    ..\r\n    if (F|filenotempty(\u0027U|xterrorfile\u0027) \u003d G|true) {\r\n        if (G|batchmode \u003d G|false) {\r\n            .error EDP-Fehler Das Fehlerprotokoll wird ausgegeben.\r\n            .editing \u0027U|xtlogfile\u0027\r\n            .. .error / abbrechen etc.\r\n        } \r\n    }",
  "location": "GENERIC_FILE",
  "filenameRestrictions": [],
  "dependencies": []
}