{
    "uuid": "608c0a29-ba3e-498c-9c4a-215242fd96ba",
    "name": "G|ainland",
    "description": "Bisherige Inlandsw\u00e4hrung",
    "extraSearchTerms": [],
    "tags": [
        "gg"
    ],
    "code": "G|ainland",
    "location": "GENERIC_FILE",
    "filenameRestrictions": [],
    "dependencies": []
}