{
    "uuid": "667b24b9-0d1b-4f0e-aeb9-44f02b8751b8",
    "name": "Meta Datei2",
    "description": "18:0 | M 100",
    "extraSearchTerms": [],
    "tags": [
        "mm"
    ],
    "code": "..<META ${HMD0123456789}|= 'P18:0'>  Datei2 | Maske 100\n${cursor}",
    "location": "GENERIC_FILE",
    "filenameRestrictions": [],
    "dependencies": []
}