{
    "uuid": "66f15d04-25a0-47fb-b93c-b0951b4d04a4",
    "name": "Meta Lagergruppe",
    "description": "39:2 | M 463",
    "extraSearchTerms": [],
    "tags": [
        "mm"
    ],
    "code": "..<META ${HMD0123456789}|= 'P39:2'>  Lagergruppe | Maske 463\n${cursor}",
    "location": "GENERIC_FILE",
    "filenameRestrictions": [],
    "dependencies": []
}