{
    "uuid": "6908e3a8-ef97-435e-902a-37b4b292ce4c",
    "name": "Meta EDI K/L.info",
    "description": "0:4 | M 138",
    "extraSearchTerms": [],
    "tags": [
        "mm"
    ],
    "code": "..<META ${HMD0123456789}|= 'P0:4'>  EDI Kunden/Lieferanteninfo | Maske 138\n${cursor}",
    "location": "GENERIC_FILE",
    "filenameRestrictions": [],
    "dependencies": []
}