{
    "uuid": "691820f3-9f99-4a9c-b5b8-49a8d58981b7",
    "name": "Meta APListenkopf",
    "description": "87:11 | M 920",
    "extraSearchTerms": [],
    "tags": [
        "mm"
    ],
    "code": "..<META ${HMD0123456789}|= 'P87:11'>  APListenkopf | Maske 920\n${cursor}",
    "location": "GENERIC_FILE",
    "filenameRestrictions": [],
    "dependencies": []
}