{
    "uuid": "6dcd3912-ac81-4907-8487-6b55a3da3508",
    "name": "Meta Datei34",
    "description": "74:0 | M 560",
    "extraSearchTerms": [],
    "tags": [
        "mm"
    ],
    "code": "..<META ${HMD0123456789}|= 'P74:0'>  Datei34 | Maske 560\n${cursor}",
    "location": "GENERIC_FILE",
    "filenameRestrictions": [],
    "dependencies": []
}