{
    "uuid": "6edf4cfa-4215-47f6-9837-55c68ff1bb2a",
    "name": "G|evtfokuszeile",
    "description": "Fokus-Maskenzeile bei Ereignis",
    "extraSearchTerms": [],
    "tags": [
        "gg"
    ],
    "code": "G|evtfokuszeile",
    "location": "GENERIC_FILE",
    "filenameRestrictions": [],
    "dependencies": []
}