{
    "uuid": "76e9382d-642e-41f0-9c60-3e6553654bba",
    "name": "ROW_MARKED",
    "description": "Zeile markiert Event",
    "extraSearchTerms": [
        "zeilemark"
    ],
    "tags": [
        "if",
        "evt"
    ],
    "code": "   if (G|evtartengl = \"ROW_MARKED\") {\n                   ${cursor}\n            }",
    "location": "GENERIC_FILE",
    "filenameRestrictions": [],
    "dependencies": []
}