{
  "uuid": "770e4917-db7a-46ad-96ef-8eb890d1276d",
  "name": "tempfile",
  "description": "",
  "extraSearchTerms": [],
  "tags": [],
  "code": ".type text xt${tempfile} ? F|defined(U|xt${tempfile}) \u003d G|false\r\n.file -tempname U|xt${tempfile} -suffix \"${suffix}\"",
  "location": "GENERIC_FILE",
  "filenameRestrictions": [],
  "dependencies": []
}