{
    "uuid": "8035c837-74d6-4eeb-9bbe-c594d10dd405",
    "name": "Meta Internes Dokument",
    "description": "70:1 | M 155",
    "extraSearchTerms": [],
    "tags": [
        "mm"
    ],
    "code": "..<META ${HMD0123456789}|= 'P70:1'>  Internes Dokument | Maske 155\n${cursor}",
    "location": "GENERIC_FILE",
    "filenameRestrictions": [],
    "dependencies": []
}