{
    "uuid": "8392bbc3-c413-42a9-a245-d001eed0b29e",
    "name": "Meta Lagergruppeneigenschaft",
    "description": "39:3 | M 464",
    "extraSearchTerms": [],
    "tags": [
        "mm"
    ],
    "code": "..<META ${HMD0123456789}|= 'P39:3'>  Lagergruppeneigenschaft | Maske 464\n${cursor}",
    "location": "GENERIC_FILE",
    "filenameRestrictions": [],
    "dependencies": []
}