{
    "uuid": "83b28f42-6ad7-4042-bb16-63d5e9066497",
    "name": "strcmp(string1, string2[, IgnoreCase][, Vergleichsl\u00e4nge])",
    "description": "F|strcmp(string1, string2[, IgnoreCase][, Vergleichsl\u00e4nge]) -> int ",
    "extraSearchTerms": [],
    "tags": [
        "ff",
        "string"
    ],
    "code": "F|strcmp(${string1}, ${string2})",
    "location": "GENERIC_FILE",
    "filenameRestrictions": [],
    "dependencies": []
}