{
    "uuid": "88450f6f-3308-48fd-8701-2f3a5b0c556c",
    "name": "Meta Freier Gesch\u00e4ftsjahres-Verlauf",
    "description": "81:1 | M 496",
    "extraSearchTerms": [],
    "tags": [
        "mm"
    ],
    "code": "..<META ${HMD0123456789}|= 'P81:1'>  Freier Gesch\u00e4ftsjahres-Verlauf | Maske 496\n${cursor}",
    "location": "GENERIC_FILE",
    "filenameRestrictions": [],
    "dependencies": []
}