{
    "uuid": "8970b9a8-066c-465e-bb30-a86fe2f4414c",
    "name": "G|bsprache",
    "description": "Bediensprache",
    "extraSearchTerms": [],
    "tags": [
        "gg"
    ],
    "code": "G|bsprache",
    "location": "GENERIC_FILE",
    "filenameRestrictions": [],
    "dependencies": []
}