{
    "uuid": "8a7e9d91-1d42-4112-8f0d-53b40e580eb7",
    "name": "Meta Datei15",
    "description": "33:0 | M 174",
    "extraSearchTerms": [],
    "tags": [
        "mm"
    ],
    "code": "..<META ${HMD0123456789}|= 'P33:0'>  Datei15 | Maske 174\n${cursor}",
    "location": "GENERIC_FILE",
    "filenameRestrictions": [],
    "dependencies": []
}