{
    "uuid": "8f3c98c6-63a9-460f-9a0a-db4d30a2ce69",
    "name": "Meta Konzernunternehmen",
    "description": "89:5 | M 711",
    "extraSearchTerms": [],
    "tags": [
        "mm"
    ],
    "code": "..<META ${HMD0123456789}|= 'P89:5'>  Konzernunternehmen | Maske 711\n${cursor}",
    "location": "GENERIC_FILE",
    "filenameRestrictions": [],
    "dependencies": []
}