{
    "uuid": "93f83713-45c3-456f-be92-50e42f0a1ce0",
    "name": "Meta Steuerregel-Kopf",
    "description": "58:5 | M 990",
    "extraSearchTerms": [],
    "tags": [
        "mm"
    ],
    "code": "..<META ${HMD0123456789}|= 'P58:5'>  Steuerregel-Kopf | Maske 990\n${cursor}",
    "location": "GENERIC_FILE",
    "filenameRestrictions": [],
    "dependencies": []
}