{
    "uuid": "9ab5613d-1f4f-44f0-b10c-c259d8381a1f",
    "name": "G|evtartengl",
    "description": "Art des Ereignisses (englisch)",
    "extraSearchTerms": [],
    "tags": [
        "gg"
    ],
    "code": "G|evtartengl",
    "location": "GENERIC_FILE",
    "filenameRestrictions": [],
    "dependencies": []
}