{
    "uuid": "a15c68d1-1f68-4257-b907-2856ebab828a",
    "name": "Meta Datenmodell",
    "description": "87:1 | M 700",
    "extraSearchTerms": [],
    "tags": [
        "mm"
    ],
    "code": "..<META ${HMD0123456789}|= 'P87:1'>  Datenmodell | Maske 700\n${cursor}",
    "location": "GENERIC_FILE",
    "filenameRestrictions": [],
    "dependencies": []
}