{
    "uuid": "a286d6b7-0503-4ed4-a2e2-e7061357f6a7",
    "name": "ROW_CHANGED",
    "description": "Zeilenwechsel Event",
    "extraSearchTerms": [
        "zeilewechsel"
    ],
    "tags": [
        "if",
        "evt"
    ],
    "code": "   if (G|evtartengl = \"ROW_CHANGED\") {\n                   ${cursor}\n            }",
    "location": "GENERIC_FILE",
    "filenameRestrictions": [],
    "dependencies": []
}