{
    "uuid": "a7912bfa-bcfc-4a43-bab3-f6bc820ab4e0",
    "name": "Meta APListenposition",
    "description": "87:12 | M 920",
    "extraSearchTerms": [],
    "tags": [
        "mm"
    ],
    "code": "..<META ${HMD0123456789}|= 'P87:12'>  APListenposition | Maske 920\n${cursor}",
    "location": "GENERIC_FILE",
    "filenameRestrictions": [],
    "dependencies": []
}