{
    "uuid": "adf0499a-e448-4086-8bc6-7158ef44aafd",
    "name": "G|sekundenz",
    "description": "Aktuelle Uhrzeit in UTC-14-Format",
    "extraSearchTerms": [],
    "tags": [
        "gg"
    ],
    "code": "G|sekundenz",
    "location": "GENERIC_FILE",
    "filenameRestrictions": [],
    "dependencies": []
}