{
    "uuid": "aff10c41-ee18-43b7-bafc-0b4fe19bf179",
    "name": "Meta Betriebsauftr\u00e4ge",
    "description": "9:1 | M 77",
    "extraSearchTerms": [],
    "tags": [
        "mm"
    ],
    "code": "..<META ${HMD0123456789}|= 'P9:1'>  Betriebsauftr\u00e4ge | Maske 77\n${cursor}",
    "location": "GENERIC_FILE",
    "filenameRestrictions": [],
    "dependencies": []
}