{
    "uuid": "b2095d74-5f85-4651-8189-aff12ed841f1",
    "name": "Meta Zahlungsbedingung",
    "description": "12:8 | M 20",
    "extraSearchTerms": [],
    "tags": [
        "mm"
    ],
    "code": "..<META ${HMD0123456789}|= 'P12:8'>  Zahlungsbedingung | Maske 20\n${cursor}",
    "location": "GENERIC_FILE",
    "filenameRestrictions": [],
    "dependencies": []
}