{
    "uuid": "b2830145-2712-43db-8614-e7f7334b11c2",
    "name": "Meta Belegarten",
    "description": "88:11 | M 899",
    "extraSearchTerms": [],
    "tags": [
        "mm"
    ],
    "code": "..<META ${HMD0123456789}|= 'P88:11'>  Belegarten | Maske 899\n${cursor}",
    "location": "GENERIC_FILE",
    "filenameRestrictions": [],
    "dependencies": []
}