{
    "uuid": "b4135586-7377-4fa7-80b6-e90b3f6ea886",
    "name": "Meta Kostenverteilung",
    "description": "5:8 | M 75",
    "extraSearchTerms": [],
    "tags": [
        "mm"
    ],
    "code": "..<META ${HMD0123456789}|= 'P5:8'>  Kostenverteilung | Maske 75\n${cursor}",
    "location": "GENERIC_FILE",
    "filenameRestrictions": [],
    "dependencies": []
}