{
    "uuid": "bae73fce-9ddc-4d68-8ce2-4849146246ab",
    "name": "Meta Z\u00e4hlmengen erfassen",
    "description": "56:3 | M 65",
    "extraSearchTerms": [],
    "tags": [
        "mm"
    ],
    "code": "..<META ${HMD0123456789}|= 'P56:3'>  Z\u00e4hlmengen erfassen | Maske 65\n${cursor}",
    "location": "GENERIC_FILE",
    "filenameRestrictions": [],
    "dependencies": []
}