{
    "uuid": "c619ecf1-7e93-4d0d-bb28-2b9b7f04f19d",
    "name": "G|seite",
    "description": "Seitennummer der aktuellen Seite",
    "extraSearchTerms": [],
    "tags": [
        "gg"
    ],
    "code": "G|seite",
    "location": "GENERIC_FILE",
    "filenameRestrictions": [],
    "dependencies": []
}