{
    "uuid": "c66fcc9a-c5b8-47dd-b1d9-59b6bf87a76c",
    "name": "HIT_VALIDATION",
    "description": "Trefferpr\u00fcf Event",
    "extraSearchTerms": [
        "trefferpruef",
        "pr\u00fcf",
        "valid"
    ],
    "tags": [
        "if",
        "evt"
    ],
    "code": "   if (G|evtartengl = \"HIT_VALIDATION\") {\n                   ${cursor}\n            }",
    "location": "GENERIC_FILE",
    "filenameRestrictions": [],
    "dependencies": []
}