{
    "uuid": "ca300125-2b46-4894-ab85-3fbe93094dbc",
    "name": "regindex(stringexpr, regexpr[, ignorecase][, startindex])",
    "description": "F|regindex(stringexpr, regexpr[, ignorecase][, startindex]) -> int",
    "extraSearchTerms": [],
    "tags": [
        "ff",
        "string"
    ],
    "code": "F|regindex(${stringexpr}, ${regexpr})",
    "location": "GENERIC_FILE",
    "filenameRestrictions": [],
    "dependencies": []
}