{
    "uuid": "cbc50af9-bc8e-4db3-922f-b741772b3b9d",
    "name": "G|seltreffercirca",
    "description": "Sch\u00e4tzung der Treffermengengr\u00f6\u00dfe der letzten Selektion",
    "extraSearchTerms": [],
    "tags": [
        "gg"
    ],
    "code": "G|seltreffercirca",
    "location": "GENERIC_FILE",
    "filenameRestrictions": [],
    "dependencies": []
}