{
    "uuid": "d36e96b0-4985-48fc-99b5-2044730dc83b",
    "name": "G|abgjahr",
    "description": "Abgeschlossenes Gesch\u00e4ftsjahr",
    "extraSearchTerms": [],
    "tags": [
        "gg"
    ],
    "code": "G|abgjahr",
    "location": "GENERIC_FILE",
    "filenameRestrictions": [],
    "dependencies": []
}