{
    "uuid": "d3e564c9-49f8-4b79-83e7-fbc0c2ccf2ad",
    "name": "Meta Schl\u00fcssel",
    "description": "99:4 | M 780",
    "extraSearchTerms": [],
    "tags": [
        "mm"
    ],
    "code": "..<META ${HMD0123456789}|= 'P99:4'>  Schl\u00fcssel | Maske 780\n${cursor}",
    "location": "GENERIC_FILE",
    "filenameRestrictions": [],
    "dependencies": []
}