{
  "uuid": "d4de1c1d-7aef-457b-9c0c-6343eae63b23",
  "name": "export edpexport",
  "description": "",
  "extraSearchTerms": [
    "epd"
  ],
  "tags": [],
  "code": ".type text xtcriteria   ? F|defined(U|xtcriteria) \u003d G|false\r\n.type text xtedpfile    ? F|defined(U|xtedpfile) \u003d G|false\r\n.type text xtsyscommand ? F|defined(U|xtsyscommand) \u003d G|false\r\n.type text xtexportargs ? F|defined(U|xtexportargs) \u003d G|false\r\n\r\n.file -tempname U|xtedpfile -suffix \"edpexport\"  \r\n\r\n.formula U|xtsyscommand \u003d \"edpexport.sh -P -l 2:1\"  \r\n.. AUSGABEFELDER\r\n.formula U|xtsyscommand \u003d U|xtsyscommand + \" -f nummer,such \"\r\n.formula U|xtsyscommand \u003d U|xtsyscommand + \" -j SORT \"\r\n.formula U|xtsyscommand \u003d U|xtsyscommand + \" -v REF \"\r\n.formula U|xtsyscommand \u003d U|xtsyscommand + \" -c EKS \"\r\n.formula U|xtsyscommand \u003d U|xtsyscommand + \" -o BOOLMODE\u003dNUM \"\r\n.formula U|xtsyscommand \u003d U|xtsyscommand + \" -o TRIMVALUES\u003d1 \"\r\n.. Zeilenausgabe\r\n...formula U|xtsyscommand \u003d U|xtsyscommand + \" -Z\"\r\n\r\n\r\n.formula U|xtexportargs \u003d \"\"\r\n\r\n.formula U|xtcriteria \u003d \"$$,,\"\r\n.formula U|xtcriteria \u003d U|xtcriteria + \";nummer\u003d10070!10078\"    \r\n.formula U|xtcriteria \u003d U|xtcriteria + \";@database\u003d2\"\r\n.formula U|xtcriteria \u003d U|xtcriteria + \";@group\u003d1\"\r\n.formula U|xtcriteria \u003d U|xtcriteria + \";@ablageart\u003d(Active)\"\r\n\r\n\r\n.load ${puffernr} nolock object \u0027U|xtcriteria\u0027\r\n\r\n.set separator %\r\nwhile (G|mehr \u003d G|true) {\r\n\r\n.formula U|xtexportargs \u003d F|formatstr(\"{1} -k \u0027nummer\u003d\u003d{2}\u0027 \", U|xtexportargs, ${puffernr}|nummer)\r\n\r\n.load ${puffernr} nolock continue\r\n}\r\n.set separator ;\r\n\r\n.formula U|xtsyscommand \u003d U|xtsyscommand + U|xtexportargs\r\n.formula U|xtsyscommand \u003d U|xtsyscommand + \" | sort -t\u0027;\u0027 -k1,1 -k2,2 \u003e\u003e \" + \u0027U|xtedpfile\u0027\r\n\r\n.system \u0027U|xtsyscommand\u0027 password background",
  "location": "GENERIC_FILE",
  "filenameRestrictions": [],
  "dependencies": []
}