{
    "uuid": "d98464ad-cee6-451a-a2fb-5f297f818b21",
    "name": "Meta Lohnfertigungsvorschl\u00e4ge",
    "description": "4:26 | M 801",
    "extraSearchTerms": [],
    "tags": [
        "mm"
    ],
    "code": "..<META ${HMD0123456789}|= 'P4:26'>  Lohnfertigungsvorschl\u00e4ge | Maske 801\n${cursor}",
    "location": "GENERIC_FILE",
    "filenameRestrictions": [],
    "dependencies": []
}