{
    "uuid": "da647e86-74f2-4abe-b6f2-c1428288f508",
    "name": "regmatch(stringexpr, regexpr[, ignorecase])",
    "description": "F|regmatch(stringexpr, regexpr[, ignorecase]) -> bool",
    "extraSearchTerms": [],
    "tags": [
        "ff",
        "string"
    ],
    "code": "F|regmatch(${stringexpr}, ${regexpr})",
    "location": "GENERIC_FILE",
    "filenameRestrictions": [],
    "dependencies": []
}