{
    "uuid": "dc8e2bda-2b7a-4195-83df-b69f88531b19",
    "name": "G|sperrtext",
    "description": "Meldungstext bei belegter Sperre",
    "extraSearchTerms": [],
    "tags": [
        "gg"
    ],
    "code": "G|sperrtext",
    "location": "GENERIC_FILE",
    "filenameRestrictions": [],
    "dependencies": []
}