{
  "uuid": "e3568f07-02de-457a-8f1d-ef694b0185ea",
  "name": "exq edp",
  "description": "",
  "extraSearchTerms": [],
  "tags": [],
  "code": ".type text xtexqcommand             ? F|defined(U|xtexqcommand) \u003d G|false\r\n.type text xtedpfile                ? F|defined(U|xtedpfile) \u003d G|false\r\n.type text xtlogfile                ? F|defined(U|xtlogfile) \u003d G|false\r\n.type text xterrorfile              ? F|defined(U|xterrorfile) \u003d G|false\r\n.type text xtoutputfile             ? F|defined(U|xtoutputfile) \u003d G|false\r\n.type text xtoutputvalue             ? F|defined(U|xtoutputvalue) \u003d G|false\r\n.type int xifiledescriptor          ? F|defined(U|xifiledescriptor) \u003d G|false\r\n.type text xtsyscommand             ? F|defined(U|xtsyscommand) \u003d G|false\r\n\r\n\r\n.file -tempname U|xtedpfile    -suffix \"edpavailable\"\r\n.file -tempname U|xtlogfile    -suffix \"logavailable\"\r\n.file -tempname U|xterrorfile  -suffix \"erroravailable\"\r\n.file -tempname U|xtoutputfile -suffix \"outputavailable\"\r\n\r\n..:: Separator aendern um Semikolon verwenden zu koennen\r\n.set separator #     \r\n.formula U|xtexqcommand \u003d F|formatstr(\"40:0,artikel^nummer\u003d\u003d{1};lgruppe\u003d\u003d`;lager\u003d\u003d`;@sort\u003d(TotalQuantitiesOfA_Product)|lemge\", U|xtspartno)\r\n\r\n.output new \u0027U|xtedpfile\u0027\r\n.input DATEI.F\r\n.println LGN|1||||||-|||    \r\n\r\n.println SET|1|UPDATEMODE|ERRABORT|       \r\n.println SET|1|LOCKBEHAVIOR|NOWAIT| \r\n.println SET|1|CONTEXT|FOPAUFRUFSTACK: \u0027G|stack\u0027 \r\n\r\n.println EXQ|1|\u0027U|xtexqcommand\u0027\r\n\r\n.println END|1|\r\n\r\n.output terminal \r\n\r\n.formula U|xtsyscommand \u003d F|formatstr(\"epi -c EKS -e -I {1} -O {2} -A 2\u003e {3}\", U|xtedpfile, U|xtlogfile, U|xterrorfile)\r\n.system \u0027U|xtsyscommand\u0027 password background\r\n\r\nif (F|filenotempty(\u0027U|xterrorfile\u0027) \u003d G|true) {\r\nif (G|batchmode \u003d G|false) {\r\n\r\n.error -message EDP-Fehler. Das Fehlerprotokoll wird ausgegeben.\r\n.editing \u0027U|xtlogfile\u0027\r\n}\r\n\r\n} else {\r\n\r\n.formula U|xtsyscommand \u003d F|formatstr(\"grep \u0027^D|1|\u0027 {1} | cut -d\u0027|\u0027 -f3 \u003e {2}\", U|xtlogfile, U|xtoutputfile)\r\n.system \u0027U|xtsyscommand\u0027 background\r\n\r\nif (F|filenotempty(\u0027U|xtoutputfile \u0027) \u003d G|true) {\r\n\r\n.file -open U|xifiledescriptor \u0027U|xtoutputfile\u0027\r\n.file -read U|xifiledescriptor U|xtoutputvalue ^\r\n.file -close U|xifiledescriptor\r\n\r\n}\r\n}\r\n\r\n..:: Separator zuruecksetzen\r\n.set separator ;",
  "location": "GENERIC_FILE",
  "filenameRestrictions": [],
  "dependencies": []
}