{
    "uuid": "edace8e3-517c-47e8-9ac3-721046295416",
    "name": "Meta Datei20",
    "description": "41:0 | M 179",
    "extraSearchTerms": [],
    "tags": [
        "mm"
    ],
    "code": "..<META ${HMD0123456789}|= 'P41:0'>  Datei20 | Maske 179\n${cursor}",
    "location": "GENERIC_FILE",
    "filenameRestrictions": [],
    "dependencies": []
}