{
    "uuid": "f905919a-d2d5-4fd6-8c39-feb67cf49869",
    "name": "Meta Anfrage",
    "description": "4:21 | M 43",
    "extraSearchTerms": [],
    "tags": [
        "mm"
    ],
    "code": "..<META ${HMD0123456789}|= 'P4:21'>  Anfrage | Maske 43\n${cursor}",
    "location": "GENERIC_FILE",
    "filenameRestrictions": [],
    "dependencies": []
}