{
    "uuid": "fbbf24da-1111-4013-8991-b32df6a1d517",
    "name": "Meta Auftrag",
    "description": "3:22 | M 32",
    "extraSearchTerms": [],
    "tags": [
        "mm"
    ],
    "code": "..<META ${HMD0123456789}|= 'P3:22'>  Auftrag | Maske 32\n${cursor}",
    "location": "GENERIC_FILE",
    "filenameRestrictions": [],
    "dependencies": []
}