{
    "uuid": "fc5dd9a2-f648-470c-a50f-d03119b43e0c",
    "name": "Meta Bildschirm",
    "description": "91:5 | M 740",
    "extraSearchTerms": [],
    "tags": [
        "mm"
    ],
    "code": "..<META ${HMD0123456789}|= 'P91:5'>  Bildschirm | Maske 740\n${cursor}",
    "location": "GENERIC_FILE",
    "filenameRestrictions": [],
    "dependencies": []
}